%YAML 1.1
%TAG !u! tag:unity3d.com,2011:
--- !u!1 &9039565332678763374
GameObject:
  m_ObjectHideFlags: 0
  m_CorrespondingSourceObject: {fileID: 0}
  m_PrefabInstance: {fileID: 0}
  m_PrefabAsset: {fileID: 0}
  serializedVersion: 6
  m_Component:
  - component: {fileID: 8650918689771731185}
  - component: {fileID: 5768221180759996225}
  m_Layer: 0
  m_Name: Input
  m_TagString: Untagged
  m_Icon: {fileID: 0}
  m_NavMeshLayer: 0
  m_StaticEditorFlags: 0
  m_IsActive: 1
--- !u!4 &8650918689771731185
Transform:
  m_ObjectHideFlags: 0
  m_CorrespondingSourceObject: {fileID: 0}
  m_PrefabInstance: {fileID: 0}
  m_PrefabAsset: {fileID: 0}
  m_GameObject: {fileID: 9039565332678763374}
  m_LocalRotation: {x: -0, y: -0, z: -0, w: 1}
  m_LocalPosition: {x: 0, y: 0, z: 0}
  m_LocalScale: {x: 1, y: 1, z: 1}
  m_Children: []
  m_Father: {fileID: 2411975166825095039}
  m_RootOrder: 2
  m_LocalEulerAnglesHint: {x: 0, y: 0, z: 0}
--- !u!114 &5768221180759996225
MonoBehaviour:
  m_ObjectHideFlags: 0
  m_CorrespondingSourceObject: {fileID: 0}
  m_PrefabInstance: {fileID: 0}
  m_PrefabAsset: {fileID: 0}
  m_GameObject: {fileID: 9039565332678763374}
  m_Enabled: 1
  m_EditorHideFlags: 0
  m_Script: {fileID: 11500000, guid: 09767016cf0c0ca4abca883a6d36832a, type: 3}
  m_Name: 
  m_EditorClassIdentifier: 
  m_moveSpeed: 3
--- !u!1001 &3527867834596053044
PrefabInstance:
  m_ObjectHideFlags: 0
  serializedVersion: 2
  m_Modification:
    m_TransformParent: {fileID: 2411975166825095039}
    m_Modifications:
    - target: {fileID: 2075571183897183551, guid: 5fd2dddf8adfdce40a1afb6d040b4445,
        type: 3}
      propertyPath: m_Name
      value: PlayerModel
      objectReference: {fileID: 0}
    - target: {fileID: 7482777208221929474, guid: 5fd2dddf8adfdce40a1afb6d040b4445,
        type: 3}
      propertyPath: m_LocalPosition.x
      value: 0
      objectReference: {fileID: 0}
    - target: {fileID: 7482777208221929474, guid: 5fd2dddf8adfdce40a1afb6d040b4445,
        type: 3}
      propertyPath: m_LocalPosition.y
      value: 0
      objectReference: {fileID: 0}
    - target: {fileID: 7482777208221929474, guid: 5fd2dddf8adfdce40a1afb6d040b4445,
        type: 3}
      propertyPath: m_LocalPosition.z
      value: 0
      objectReference: {fileID: 0}
    - target: {fileID: 7482777208221929474, guid: 5fd2dddf8adfdce40a1afb6d040b4445,
        type: 3}
      propertyPath: m_LocalRotation.x
      value: -0
      objectReference: {fileID: 0}
    - target: {fileID: 7482777208221929474, guid: 5fd2dddf8adfdce40a1afb6d040b4445,
        type: 3}
      propertyPath: m_LocalRotation.y
      value: -0
      objectReference: {fileID: 0}
    - target: {fileID: 7482777208221929474, guid: 5fd2dddf8adfdce40a1afb6d040b4445,
        type: 3}
      propertyPath: m_LocalRotation.z
      value: -0
      objectReference: {fileID: 0}
    - target: {fileID: 7482777208221929474, guid: 5fd2dddf8adfdce40a1afb6d040b4445,
        type: 3}
      propertyPath: m_LocalRotation.w
      value: 1
      objectReference: {fileID: 0}
    - target: {fileID: 7482777208221929474, guid: 5fd2dddf8adfdce40a1afb6d040b4445,
        type: 3}
      propertyPath: m_RootOrder
      value: 0
      objectReference: {fileID: 0}
    - target: {fileID: 7482777208221929474, guid: 5fd2dddf8adfdce40a1afb6d040b4445,
        type: 3}
      propertyPath: m_LocalEulerAnglesHint.x
      value: 0
      objectReference: {fileID: 0}
    - target: {fileID: 7482777208221929474, guid: 5fd2dddf8adfdce40a1afb6d040b4445,
        type: 3}
      propertyPath: m_LocalEulerAnglesHint.y
      value: 0
      objectReference: {fileID: 0}
    - target: {fileID: 7482777208221929474, guid: 5fd2dddf8adfdce40a1afb6d040b4445,
        type: 3}
      propertyPath: m_LocalEulerAnglesHint.z
      value: 0
      objectReference: {fileID: 0}
    m_RemovedComponents: []
  m_SourcePrefab: {fileID: 100100000, guid: 5fd2dddf8adfdce40a1afb6d040b4445, type: 3}
--- !u!1001 &6341934276144753489
PrefabInstance:
  m_ObjectHideFlags: 0
  serializedVersion: 2
  m_Modification:
    m_TransformParent: {fileID: 0}
    m_Modifications:
    - target: {fileID: 258878076808971973, guid: ddb8e223035128440af417856e362121,
        type: 3}
      propertyPath: m_AutoTraverseOffMeshLink
      value: 0
      objectReference: {fileID: 0}
    - target: {fileID: 258878076808971973, guid: ddb8e223035128440af417856e362121,
        type: 3}
      propertyPath: m_AngularSpeed
      value: 500
      objectReference: {fileID: 0}
    - target: {fileID: 1608464629999268817, guid: ddb8e223035128440af417856e362121,
        type: 3}
      propertyPath: m_RootOrder
      value: 1
      objectReference: {fileID: 0}
    - target: {fileID: 6538875160571722079, guid: ddb8e223035128440af417856e362121,
        type: 3}
      propertyPath: m_RootOrder
      value: 1
      objectReference: {fileID: 0}
    - target: {fileID: 8391616830626962388, guid: ddb8e223035128440af417856e362121,
        type: 3}
      propertyPath: m_Name
      value: Player
      objectReference: {fileID: 0}
    - target: {fileID: 8391616830626962388, guid: ddb8e223035128440af417856e362121,
        type: 3}
      propertyPath: m_TagString
      value: Player
      objectReference: {fileID: 0}
    - target: {fileID: 8753340973978170414, guid: ddb8e223035128440af417856e362121,
        type: 3}
      propertyPath: m_LocalPosition.x
      value: 0
      objectReference: {fileID: 0}
    - target: {fileID: 8753340973978170414, guid: ddb8e223035128440af417856e362121,
        type: 3}
      propertyPath: m_LocalPosition.y
      value: 0
      objectReference: {fileID: 0}
    - target: {fileID: 8753340973978170414, guid: ddb8e223035128440af417856e362121,
        type: 3}
      propertyPath: m_LocalPosition.z
      value: 0
      objectReference: {fileID: 0}
    - target: {fileID: 8753340973978170414, guid: ddb8e223035128440af417856e362121,
        type: 3}
      propertyPath: m_LocalRotation.x
      value: 0
      objectReference: {fileID: 0}
    - target: {fileID: 8753340973978170414, guid: ddb8e223035128440af417856e362121,
        type: 3}
      propertyPath: m_LocalRotation.y
      value: 0
      objectReference: {fileID: 0}
    - target: {fileID: 8753340973978170414, guid: ddb8e223035128440af417856e362121,
        type: 3}
      propertyPath: m_LocalRotation.z
      value: 0
      objectReference: {fileID: 0}
    - target: {fileID: 8753340973978170414, guid: ddb8e223035128440af417856e362121,
        type: 3}
      propertyPath: m_LocalRotation.w
      value: 1
      objectReference: {fileID: 0}
    - target: {fileID: 8753340973978170414, guid: ddb8e223035128440af417856e362121,
        type: 3}
      propertyPath: m_RootOrder
      value: 0
      objectReference: {fileID: 0}
    - target: {fileID: 8753340973978170414, guid: ddb8e223035128440af417856e362121,
        type: 3}
      propertyPath: m_LocalEulerAnglesHint.x
      value: 0
      objectReference: {fileID: 0}
    - target: {fileID: 8753340973978170414, guid: ddb8e223035128440af417856e362121,
        type: 3}
      propertyPath: m_LocalEulerAnglesHint.y
      value: 0
      objectReference: {fileID: 0}
    - target: {fileID: 8753340973978170414, guid: ddb8e223035128440af417856e362121,
        type: 3}
      propertyPath: m_LocalEulerAnglesHint.z
      value: 0
      objectReference: {fileID: 0}
    m_RemovedComponents: []
  m_SourcePrefab: {fileID: 100100000, guid: ddb8e223035128440af417856e362121, type: 3}
--- !u!4 &2411975166825095039 stripped
Transform:
  m_CorrespondingSourceObject: {fileID: 8753340973978170414, guid: ddb8e223035128440af417856e362121,
    type: 3}
  m_PrefabInstance: {fileID: 6341934276144753489}
  m_PrefabAsset: {fileID: 0}
